smartctl 5.43 2012-06-30 r3573 [x86_64-linux-4.1.3-1.el6.elrepo.x86_64] (local build)
Copyright (C) 2002-12 by Bruce Allen, http://smartmontools.sourceforge.net

/dev/cciss/c0d1 [cciss_disk_00] [SCSI]: Device open changed type from 'sat,auto' to 'cciss'
Vendor:               HP      
Product:              DG0146FARVU     
Revision:             HPDG
User Capacity:        146,815,737,856 bytes [146 GB]
Logical block size:   512 bytes
Logical Unit id:      0x5000cca00a8eb0b4
Serial number:                PCXJGR3E
Device type:          disk
Transport protocol:   SAS
Local Time is:        Sat Dec 19 15:25:16 2015 CET
Device supports SMART and is Enabled
Temperature Warning Enabled
SMART Health Status: OK

Current Drive Temperature:     29 C
Drive Trip Temperature:        65 C
Manufactured in week 19 of year 2010
Specified cycle count over device lifetime:  50000
Accumulated start-stop cycles:  60
Elements in grown defect list: 0
Vendor (Seagate) cache information
  Blocks sent to initiator = 7205129090498560

Error counter log:
           Errors Corrected by           Total   Correction     Gigabytes    Total
               ECC          rereads/    errors   algorithm      processed    uncorrected
           fast | delayed   rewrites  corrected  invocations   [10^9 bytes]  errors
read:          0  2396037         0   2396037          0     231483.191           0
write:         0   202074         0    202074          0      18536.784           0

Non-medium error count:      209

SMART Self-test log
Num  Test              Status                 segment  LifeTime  LBA_first_err [SK ASC ASQ]
     Description                              number   (hours)
# 1  Background short  Completed                   -       6                 - [-   -    -]
# 2  Background short  Completed                   -       1                 - [-   -    -]

Long (extended) Self Test duration: 1837 seconds [30.6 minutes]
