starting vacuum...end.
transaction type: TPC-B (sort of)
scaling factor: 4000
query mode: simple
number of clients: 16
number of threads: 1
duration: 3600 s
number of transactions actually processed: 11251801
latency average: 5.119 ms
tps = 3125.478405 (including connections establishing)
tps = 3125.479266 (excluding connections establishing)
