starting vacuum...end.
transaction type: TPC-B (sort of)
scaling factor: 4000
query mode: simple
number of clients: 16
number of threads: 1
duration: 3600 s
number of transactions actually processed: 21837636
latency average: 2.638 ms
tps = 6065.973210 (including connections establishing)
tps = 6065.975016 (excluding connections establishing)
