starting vacuum...end.
transaction type: TPC-B (sort of)
scaling factor: 4000
query mode: simple
number of clients: 16
number of threads: 1
duration: 3600 s
number of transactions actually processed: 1424252
latency average: 40.442 ms
tps = 395.620341 (including connections establishing)
tps = 395.620609 (excluding connections establishing)
