smartctl 5.43 2012-06-30 r3573 [x86_64-linux-4.3.2-1.el6.elrepo.x86_64] (local build)
Copyright (C) 2002-12 by Bruce Allen, http://smartmontools.sourceforge.net

/dev/cciss/c0d1 [cciss_disk_01] [SCSI]: Device open changed type from 'sat,auto' to 'cciss'
Vendor:               HP      
Product:              DG0146FARVU     
Revision:             HPDG
User Capacity:        146,815,737,856 bytes [146 GB]
Logical block size:   512 bytes
Logical Unit id:      0x5000cca00a8d51d8
Serial number:                PCXHRASE
Device type:          disk
Transport protocol:   SAS
Local Time is:        Thu Dec 17 13:30:52 2015 CET
Device supports SMART and is Enabled
Temperature Warning Enabled
SMART Health Status: OK

Current Drive Temperature:     29 C
Drive Trip Temperature:        65 C
Manufactured in week 19 of year 2010
Specified cycle count over device lifetime:  50000
Accumulated start-stop cycles:  62
Elements in grown defect list: 0
Vendor (Seagate) cache information
  Blocks sent to initiator = 9061195701026816

Error counter log:
           Errors Corrected by           Total   Correction     Gigabytes    Total
               ECC          rereads/    errors   algorithm      processed    uncorrected
           fast | delayed   rewrites  corrected  invocations   [10^9 bytes]  errors
read:          0  1192714         0   1192714          0     234668.150           0
write:         0   572935         0    572935          0      21475.618           0

Non-medium error count:      211

SMART Self-test log
Num  Test              Status                 segment  LifeTime  LBA_first_err [SK ASC ASQ]
     Description                              number   (hours)
# 1  Background short  Completed                   -       6                 - [-   -    -]
# 2  Background short  Completed                   -       1                 - [-   -    -]

Long (extended) Self Test duration: 1837 seconds [30.6 minutes]
