starting vacuum...end.
transaction type: TPC-B (sort of)
scaling factor: 4000
query mode: simple
number of clients: 16
number of threads: 1
duration: 1800 s
number of transactions actually processed: 11330897
latency average: 2.542 ms
tps = 6294.833097 (including connections establishing)
tps = 6294.836837 (excluding connections establishing)
