starting vacuum...end.
transaction type: TPC-B (sort of)
scaling factor: 4000
query mode: simple
number of clients: 16
number of threads: 1
duration: 1800 s
number of transactions actually processed: 11361822
latency average: 2.535 ms
tps = 6312.037735 (including connections establishing)
tps = 6312.041402 (excluding connections establishing)
