starting vacuum...end.
transaction type: TPC-B (sort of)
scaling factor: 4000
query mode: simple
number of clients: 16
number of threads: 1
duration: 1800 s
number of transactions actually processed: 11310252
latency average: 2.546 ms
tps = 6283.344556 (including connections establishing)
tps = 6283.348227 (excluding connections establishing)
