smartctl 5.43 2012-06-30 r3573 [x86_64-linux-4.3.2-1.el6.elrepo.x86_64] (local build)
Copyright (C) 2002-12 by Bruce Allen, http://smartmontools.sourceforge.net

/dev/cciss/c0d1 [cciss_disk_02] [SCSI]: Device open changed type from 'sat,auto' to 'cciss'
Vendor:               HP      
Product:              DG0146FARVU     
Revision:             HPDG
User Capacity:        146,815,737,856 bytes [146 GB]
Logical block size:   512 bytes
Logical Unit id:      0x5000cca00a8f0988
Serial number:                PCXJNMHE
Device type:          disk
Transport protocol:   SAS
Local Time is:        Sun Jan  3 08:26:25 2016 CET
Device supports SMART and is Enabled
Temperature Warning Enabled
SMART Health Status: OK

Current Drive Temperature:     30 C
Drive Trip Temperature:        65 C
Manufactured in week 19 of year 2010
Specified cycle count over device lifetime:  50000
Accumulated start-stop cycles:  62
Elements in grown defect list: 0
Vendor (Seagate) cache information
  Blocks sent to initiator = 9443370313187328

Error counter log:
           Errors Corrected by           Total   Correction     Gigabytes    Total
               ECC          rereads/    errors   algorithm      processed    uncorrected
           fast | delayed   rewrites  corrected  invocations   [10^9 bytes]  errors
read:          0  1761912         0   1761912          0     233049.490           0
write:         0   700544         0    700544          0      24044.953           0

Non-medium error count:      216

SMART Self-test log
Num  Test              Status                 segment  LifeTime  LBA_first_err [SK ASC ASQ]
     Description                              number   (hours)
# 1  Background short  Completed                   -       6                 - [-   -    -]
# 2  Background short  Completed                   -       1                 - [-   -    -]

Long (extended) Self Test duration: 1837 seconds [30.6 minutes]
