starting vacuum...end.
transaction type: TPC-B (sort of)
scaling factor: 4000
query mode: simple
number of clients: 16
number of threads: 1
duration: 3600 s
number of transactions actually processed: 19014202
latency average: 3.029 ms
tps = 5281.676755 (including connections establishing)
tps = 5281.678211 (excluding connections establishing)
