starting vacuum...end.
transaction type: TPC-B (sort of)
scaling factor: 4000
query mode: simple
number of clients: 16
number of threads: 1
duration: 3600 s
number of transactions actually processed: 18147284
latency average: 3.174 ms
tps = 5040.879812 (including connections establishing)
tps = 5040.881109 (excluding connections establishing)
